{
  "images" : [
    {
      "filename" : "seen_done_double_checked_ticks_icon_149389.png",
      "idiom" : "universal",
      "scale" : "1x"
    },
    {
      "filename" : "seen_done_double_checked_ticks_icon_149389@2x.png",
      "idiom" : "universal",
      "scale" : "2x"
    },
    {
      "filename" : "seen_done_double_checked_ticks_icon_149389@3x.png",
      "idiom" : "universal",
      "scale" : "3x"
    }
  ],
  "info" : {
    "author" : "xcode",
    "version" : 1
  }
}
